<svg xmlns="http://www.w3.org/2000/svg" width="739.951" height="739.439" viewBox="0 0 739.951 739.439">
  <path id="Caminho_21" data-name="Caminho 21" d="M726.522,1133.76c-87.87-12.47-163.27-51.33-224.17-115.13-84.1-89.03-119.19-217.21-91.35-335.24,17.69-73.95,46.4-125.57,100.05-179.22s103.24-81.49,180.09-100.63c26.97-6.67,35.96-7.54,81.2-7.54s54.23.87,81.2,7.54c76.85,19.14,126.44,46.98,180.09,100.63s81.49,103.53,100.63,180.09c6.67,27.55,7.54,35.38,7.25,82.65-.29,48.14-.87,54.81-8.99,85.84-36.54,141.23-142.1,243.31-284.78,275.5C819.322,1134.63,754.072,1137.53,726.522,1133.76ZM622.412,964.11c25.81-5.51,46.11-16.53,66.12-36.25,30.74-30.45,40.31-60.03,40.31-127.02V759.37l-18.85.87-18.56.87-1.16,49.88c-1.16,46.98-1.74,51.04-8.99,65.83-9.28,19.14-25.81,34.51-47.85,44.95-15.08,6.96-19.43,7.54-64.67,8.41l-48.14,1.16-1.16,17.4c-.29,9.57-.29,17.98.29,18.56C522.942,970.49,604.722,967.88,622.412,964.11Zm402.52,3.19c.58-.58.58-9.28.29-18.85l-1.16-17.69h-34.51c-21.17,0-34.51-1.16-34.51-2.9s13.92-2.9,36.25-2.9h36.25v-37.7h-44.08c-52.49,0-63.51-3.48-76.85-23.49-7.83-11.89-8.12-13.34-8.99-58.29l-.87-45.82h-37.99l1.16,53.07c1.16,60.32,1.74,62.06,25.81,85.84,15.37,15.08,38.57,26.39,54.81,26.39,4.93,0,8.7,1.45,8.7,3.19,0,4.64-21.75.58-39.73-7.54-18.85-8.41-40.02-29.29-48.14-47.27-5.22-12.18-6.09-19.14-6.09-62.93l-.29-49.3-19.43-.87-19.72-.87v40.02c0,22.04,1.16,47.56,2.9,57.13,8.41,52.2,50.46,96.28,102.66,107.59C937.352,967.59,1022.032,970.2,1024.932,967.3Zm-390.92-50.46c15.37-7.83,37.12-28.13,44.95-42.34,4.06-7.25,5.22-18.56,5.8-61.77l1.16-53.07h-38.28v42.05c0,55.1-4.93,68.44-30.45,80.04-9.57,4.35-19.14,5.51-53.94,5.51-23.2,0-42.92.58-43.5,1.16s-.58,9.28-.29,19.14l1.16,17.98,49.59-1.16C615.452,923.51,621.252,922.93,634.012,916.84Zm154.28-141.81,2.03-12.47h-35.67l2.03,11.02c.87,5.8,4.93,17.98,8.99,26.68l7.25,15.95,6.67-14.5A123.8,123.8,0,0,0,788.292,775.03Zm15.37-18.27c8.41,0,9.28-.87,9.28-8.41v-8.41h-35.38c-19.72.29-37.7-.29-40.02-.87-2.9-.87-4.64,1.45-5.22,6.67-.87,6.38.58,8.12,5.8,9.28a131.121,131.121,0,0,0,41.47,2.9C787.712,757.34,798.442,756.76,803.662,756.76Zm-1.45-22.04,10.73-2.03V652.36c0-44.37-.87-84.39-1.74-89.03l-1.74-8.7h-73.95l-1.74,53.94c-1.16,29.58-2.03,69.89-2.03,89.32v35.38l8.12,1.16C752.912,736.46,790.322,736.46,802.212,734.72Zm-74.24-64.96.87-62.35-40.6,61.77c-22.33,33.93-40.6,62.35-40.6,62.93,0,.87,17.98,1.16,40.02.87l39.73-.87Zm169.07,62.64c0-1.74-72.79-116-76.56-120.06-2.61-2.61-3.77,10.44-4.35,55.97-.29,32.48,0,60.61,1.16,62.35C819.032,733.27,897.042,735.01,897.042,732.4Zm-88.45-185.02c4.93-4.93-11.31-54.23-26.39-80.04-6.38-10.44-8.12-11.89-11.89-8.99-6.96,5.8-20.59,35.38-26.97,58.29-7.25,26.68-7.25,30.45.87,32.19C752.912,550.86,806.562,549.7,808.592,547.38Z" transform="translate(-401.608 -396)" fill="#fff"/>
</svg>
